TÉCNICAS DE ANÁLISIS MULTIVARIANTE
…
---

# PCA en R: caso «manual»

Volvemos a nuestro **ejemplo sencillo (bidimensional)** tomando de `{iris}` solo las variables del pétalo.

```r
library(tidyverse)
iris_tb <- as_tibble(iris)
iris_bi <- iris_tb[, 3:5]
iris_bi
```

```
> # A tibble: 150 × 3
>    Petal.Length Petal.Width Species
>           <dbl>       <dbl> <fct>  
>  1          1.4         0.2 setosa 
>  2          1.4         0.2 setosa 
>  3          1.3         0.2 setosa 
>  4          1.5         0.2 setosa 
>  5          1.4         0.2 setosa 
>  6          1.7         0.4 setosa 
>  7          1.4         0.3 setosa 
>  8          1.5         0.2 setosa 
>  9          1.4         0.2 setosa 
> 10          1.5         0.1 setosa 
> # … with 140 more rows
> # ℹ Use `print(n = ...)` to see more rows
```
---

# PCA en R: caso «manual»

**Primer paso**: **estandarizar** los datos

```r
iris_bi_std <- tibble(as_tibble(scale(iris_bi[, 1:2])),
                      "Species" = iris_bi$Species)
names(iris_bi_std) <- names(iris_bi)
iris_bi_std
```

```
> # A tibble: 150 × 3
>    Petal.Length Petal.Width Species
>           <dbl>       <dbl> <fct>  
>  1        -1.34       -1.31 setosa 
>  2        -1.34       -1.31 setosa 
>  3        -1.39       -1.31 setosa 
>  4        -1.28       -1.31 setosa 
>  5        -1.34       -1.31 setosa 
>  6        -1.17       -1.05 setosa 
>  7        -1.34       -1.18 setosa 
>  8        -1.28       -1.31 setosa 
>  9        -1.34       -1.31 setosa 
> 10        -1.28       -1.44 setosa 
> # … with 140 more rows
> # ℹ Use `print(n = ...)` to see more rows
```
…
---

# PCA en R: caso «manual»

* **Sexto paso**: proyectar en las nuevas componentes para obtener las **nuevas coordenadas** (¡respecto a la nueva base!), los llamados **scores**

```r
scores <- tibble(as_tibble(as.matrix(iris_bi_std[, -3]) %*% autocosas$vectors),
                 "Species" = iris_bi_std$Species)
names(scores) <- c("PC1", "PC2", "Species")
scores
```

```
> # A tibble: 150 × 3
>      PC1     PC2 Species
>    <dbl>   <dbl> <fct>  
>  1 -1.87  0.0175 setosa 
>  2 -1.87  0.0175 setosa 
>  3 -1.91  0.0575 setosa 
>  4 -1.83 -0.0226 setosa 
>  5 -1.87  0.0175 setosa 
>  6 -1.57  0.0828 setosa 
>  7 -1.78  0.110  setosa 
>  8 -1.83 -0.0226 setosa 
>  9 -1.87  0.0175 setosa 
> 10 -1.92 -0.115  setosa 
> # … with 140 more rows
> # ℹ Use `print(n = ...)` to see more rows
```
…
---

# PCA en R: con prcomp

.pull-left[

En `pca$x` quedan guardados los **scores** o nuevas coordenadas de nuestros datos

```r
as_tibble(pca$x)
```

```
> # A tibble: 150 × 2
>      PC1     PC2
>    <dbl>   <dbl>
>  1 -1.87  0.0175
>  2 -1.87  0.0175
>  3 -1.91  0.0575
>  4 -1.83 -0.0226
>  5 -1.87  0.0175
>  6 -1.57  0.0828
>  7 -1.78  0.110 
>  8 -1.83 -0.0226
>  9 -1.87  0.0175
> 10 -1.92 -0.115 
> # … with 140 more rows
> # ℹ Use `print(n = ...)` to see more rows
```

]

.pull-right[

También podemos calcularlas nosotros mismos **proyectando los datos en las nuevas componentes**

```r
as_tibble(as.matrix(iris_bi_std[, -3]) %*% pca$rotation)
```

```
> # A tibble: 150 × 2
>      PC1     PC2
>    <dbl>   <dbl>
>  1 -1.87  0.0175
>  2 -1.87  0.0175
>  3 -1.91  0.0575
>  4 -1.83 -0.0226
>  5 -1.87  0.0175
>  6 -1.57  0.0828
>  7 -1.78  0.110 
>  8 -1.83 -0.0226
>  9 -1.87  0.0175
> 10 -1.92 -0.115 
> # … with 140 more rows
> # ℹ Use `print(n = ...)` to see more rows
```
…
Con el argumento `num_comp = 4` indícamos el número de componentes y con `prefix` el prefijo con el que llamaremos a las nuevas variables

---

# PCA con tidymodels

```r
data_pc <- bake(receta %>% prep(), new_data = NULL)
data_pc
```

```
> # A tibble: 150 × 5
>    Species   PC1     PC2     PC3      PC4
>    <fct>   <dbl>   <dbl>   <dbl>    <dbl>
>  1 setosa  -2.26 -0.478   0.127   0.0241 
>  2 setosa  -2.07  0.672   0.234   0.103  
>  3 setosa  -2.36  0.341  -0.0441  0.0283 
>  4 setosa  -2.29  0.595  -0.0910 -0.0657 
>  5 setosa  -2.38 -0.645  -0.0157 -0.0358 
>  6 setosa  -2.07 -1.48   -0.0269  0.00659
>  7 setosa  -2.44 -0.0475 -0.334  -0.0367 
>  8 setosa  -2.23 -0.222   0.0884 -0.0245 
>  9 setosa  -2.33  1.11   -0.145  -0.0268 
> 10 setosa  -2.18  0.467   0.253  -0.0398 
> # … with 140 more rows
> # ℹ Use `print(n = ...)` to see more rows
```
…
```r
set.seed(1234567)
labelled_points <- centers %>% mutate(x = map2(num_points, x, rnorm), y = map2(num_points, y, rnorm)) %>% 
  select(-num_points) %>%  unnest(cols = c(x, y))
labelled_points
```

```
> # A tibble: 300 × 3
>    cluster     x      y
>    <fct>   <dbl>  <dbl>
>  1 1        5.16 -1.32 
>  2 1        6.37 -0.642
>  3 1        5.73 -0.975
>  4 1        3.65  0.559
>  5 1        4.99 -0.379
>  6 1        5.32 -0.760
>  7 1        3.22  0.148
>  8 1        5.91 -2.79 
>  9 1        4.08 -1.28 
> 10 1        4.84 -1.63 
> # … with 290 more rows
> # ℹ Use `print(n = ...)` to see more rows
```
…
